EESchema Schematic File Version 4
EELAYER 30 0
EELAYER END
$Descr A4 11693 8268
encoding utf-8
Sheet 1 1
Title "Controlador para carrinho 4WD"
Date "2021-09-22"
Rev "R2"
Comp "Vi Lugão"
Comment1 ""
Comment2 ""
Comment3 ""
Comment4 ""
$EndDescr
$Comp
L Driver_Motor:L298HN U2
U 1 1 612FAF92
P 4500 5100
F 0 "U2" H 4050 5850 50  0000 C CNN
F 1 "L298N" H 4100 5750 50  0000 C CNN
F 2 "Package_TO_SOT_THT:TO-220-15_P2.54x2.54mm_StaggerOdd_Lead4.58mm_Vertical" H 4550 4450 50  0001 L CNN
F 3 "http://www.st.com/st-web-ui/static/active/en/resource/technical/document/datasheet/CD00000240.pdf" H 4650 5350 50  0001 C CNN
	1    4500 5100
	1    0    0    -1  
$EndComp
$Comp
L MCU_Microchip_ATmega:ATmega168V-10PU U1
U 1 1 612FD284
P 2500 3400
F 0 "U1" H 1856 3446 50  0000 R CNN
F 1 "ATmega168V-10PU" H 1856 3355 50  0000 R CNN
F 2 "Package_DIP:DIP-28_W7.62mm_Socket" H 2500 3400 50  0001 C CIN
F 3 "http://ww1.microchip.com/downloads/en/DeviceDoc/Atmel-2545-8-bit-AVR-Microcontroller-ATmega48-88-168_Datasheet.pdf" H 2500 3400 50  0001 C CNN
	1    2500 3400
	1    0    0    -1  
$EndComp
$Comp
L Device:C_Small C2
U 1 1 61302051
P 2700 1850
F 0 "C2" V 2471 1850 50  0000 C CNN
F 1 "100n" V 2562 1850 50  0000 C CNN
F 2 "Capacitor_THT:C_Disc_D5.0mm_W2.5mm_P2.50mm" H 2700 1850 50  0001 C CNN
F 3 "~" H 2700 1850 50  0001 C CNN
	1    2700 1850
	0    1    1    0   
$EndComp
Wire Wire Line
	2600 1900 2600 1850
Wire Wire Line
	2600 1850 2500 1850
Connection ~ 2600 1850
Wire Wire Line
	2500 1900 2500 1850
$Comp
L Diode:1N4007 D2
U 1 1 6130C5D7
P 5250 4700
F 0 "D2" V 5204 4780 50  0000 L CNN
F 1 "1N4937" V 5295 4780 50  0000 L CNN
F 2 "Diode_THT:D_DO-41_SOD81_P10.16mm_Horizontal" H 5250 4525 50  0001 C CNN
F 3 "" H 5250 4700 50  0001 C CNN
	1    5250 4700
	0    1    1    0   
$EndComp
Wire Wire Line
	5100 4900 5250 4900
Wire Wire Line
	5250 4900 5250 4850
Wire Wire Line
	5100 5000 5750 5000
Wire Wire Line
	5750 5000 5750 4850
Wire Wire Line
	5100 5200 6250 5200
Wire Wire Line
	6250 5200 6250 4850
Wire Wire Line
	5100 5300 6750 5300
Wire Wire Line
	6750 5300 6750 4850
Wire Wire Line
	5250 5350 5250 4900
Connection ~ 5250 4900
Wire Wire Line
	5750 5350 5750 5000
Connection ~ 5750 5000
Wire Wire Line
	6250 5350 6250 5200
Connection ~ 6250 5200
Wire Wire Line
	6750 5350 6750 5300
Connection ~ 6750 5300
$Comp
L Motor:Motor_DC M1
U 1 1 61336D3F
P 7500 4700
F 0 "M1" H 7658 4696 50  0000 L CNN
F 1 "MotorEsquerdo" H 7658 4605 50  0000 L CNN
F 2 "Connector_Molex:Molex_KK-254_AE-6410-02A_1x02_P2.54mm_Vertical" H 7500 4610 50  0001 C CNN
F 3 "~" H 7500 4610 50  0001 C CNN
	1    7500 4700
	1    0    0    -1  
$EndComp
$Comp
L Motor:Motor_DC M2
U 1 1 61338719
P 7500 5400
F 0 "M2" H 7658 5396 50  0000 L CNN
F 1 "MotorDireito" H 7658 5305 50  0000 L CNN
F 2 "Connector_Molex:Molex_KK-254_AE-6410-02A_1x02_P2.54mm_Vertical" H 7500 5310 50  0001 C CNN
F 3 "~" H 7500 5310 50  0001 C CNN
	1    7500 5400
	1    0    0    -1  
$EndComp
Wire Wire Line
	5250 4900 7250 4900
Wire Wire Line
	7250 4500 7250 4900
Wire Wire Line
	7250 5700 7250 5300
Wire Wire Line
	7250 5300 6750 5300
$Comp
L Device:R R1
U 1 1 6135721E
P 3800 6250
F 0 "R1" H 3870 6296 50  0000 L CNN
F 1 "0R1" H 3870 6205 50  0000 L CNN
F 2 "Resistor_THT:R_Axial_DIN0207_L6.3mm_D2.5mm_P10.16mm_Horizontal" V 3730 6250 50  0001 C CNN
F 3 "~" H 3800 6250 50  0001 C CNN
	1    3800 6250
	1    0    0    -1  
$EndComp
$Comp
L Device:R R3
U 1 1 6135848D
P 4300 6250
F 0 "R3" H 4370 6296 50  0000 L CNN
F 1 "0R1" H 4370 6205 50  0000 L CNN
F 2 "Resistor_THT:R_Axial_DIN0207_L6.3mm_D2.5mm_P10.16mm_Horizontal" V 4230 6250 50  0001 C CNN
F 3 "~" H 4300 6250 50  0001 C CNN
	1    4300 6250
	1    0    0    -1  
$EndComp
$Comp
L Device:R R2
U 1 1 61377922
P 4050 6250
F 0 "R2" H 4120 6296 50  0000 L CNN
F 1 "0R1" H 4120 6205 50  0000 L CNN
F 2 "Resistor_THT:R_Axial_DIN0207_L6.3mm_D2.5mm_P10.16mm_Horizontal" V 3980 6250 50  0001 C CNN
F 3 "~" H 4050 6250 50  0001 C CNN
	1    4050 6250
	1    0    0    -1  
$EndComp
$Comp
L Device:R R4
U 1 1 61377E2D
P 4550 6250
F 0 "R4" H 4620 6296 50  0000 L CNN
F 1 "0R1" H 4620 6205 50  0000 L CNN
F 2 "Resistor_THT:R_Axial_DIN0207_L6.3mm_D2.5mm_P10.16mm_Horizontal" V 4480 6250 50  0001 C CNN
F 3 "~" H 4550 6250 50  0001 C CNN
	1    4550 6250
	1    0    0    -1  
$EndComp
Wire Wire Line
	4300 6100 4550 6100
Wire Wire Line
	4050 6100 3800 6100
$Comp
L Device:C_Small C3
U 1 1 613DF115
P 4700 4350
F 0 "C3" V 4471 4350 50  0000 C CNN
F 1 "100n" V 4562 4350 50  0000 C CNN
F 2 "Capacitor_THT:C_Disc_D5.0mm_W2.5mm_P2.50mm" H 4700 4350 50  0001 C CNN
F 3 "~" H 4700 4350 50  0001 C CNN
	1    4700 4350
	0    1    1    0   
$EndComp
$Comp
L power:GND #PWR016
U 1 1 613EF89E
P 4800 4350
F 0 "#PWR016" H 4800 4100 50  0001 C CNN
F 1 "GND" V 4805 4222 50  0000 R CNN
F 2 "" H 4800 4350 50  0001 C CNN
F 3 "" H 4800 4350 50  0001 C CNN
	1    4800 4350
	0    -1   -1   0   
$EndComp
Text Label 3450 4400 2    50   ~ 0
AtivaEsq
Text Label 3400 4500 2    50   ~ 0
AtivaDir
Text Label 9050 3000 0    50   ~ 0
LuzFreio
Text Label 3450 4100 2    50   ~ 0
Esq+
Text Label 3450 4200 2    50   ~ 0
Esq-
Text Label 3400 4300 2    50   ~ 0
Dir+
Text Label 3400 4600 2    50   ~ 0
Dir-
NoConn ~ 3100 3100
NoConn ~ 3100 3200
NoConn ~ 3100 3300
NoConn ~ 3100 3400
NoConn ~ 3100 3500
NoConn ~ 3100 3600
NoConn ~ 3100 2200
NoConn ~ 1900 2200
$Comp
L power:GND #PWR04
U 1 1 616E9E0F
P 10500 2800
F 0 "#PWR04" H 10500 2550 50  0001 C CNN
F 1 "GND" H 10505 2627 50  0000 C CNN
F 2 "" H 10500 2800 50  0001 C CNN
F 3 "" H 10500 2800 50  0001 C CNN
	1    10500 2800
	1    0    0    -1  
$EndComp
$Comp
L power:GND #PWR07
U 1 1 616FA44E
P 2800 1850
F 0 "#PWR07" H 2800 1600 50  0001 C CNN
F 1 "GND" V 2805 1722 50  0000 R CNN
F 2 "" H 2800 1850 50  0001 C CNN
F 3 "" H 2800 1850 50  0001 C CNN
	1    2800 1850
	0    -1   -1   0   
$EndComp
$Comp
L power:GND #PWR06
U 1 1 616FC940
P 2500 4900
F 0 "#PWR06" H 2500 4650 50  0001 C CNN
F 1 "GND" H 2505 4727 50  0000 C CNN
F 2 "" H 2500 4900 50  0001 C CNN
F 3 "" H 2500 4900 50  0001 C CNN
	1    2500 4900
	1    0    0    -1  
$EndComp
NoConn ~ 3100 3700
Wire Notes Line
	3700 6050 4750 6050
Wire Notes Line
	4750 6050 4750 6450
Wire Notes Line
	4750 6450 3700 6450
Wire Notes Line
	3700 6450 3700 6050
$Comp
L Diode:1N4007 D3
U 1 1 6178CBFD
P 5250 5500
F 0 "D3" V 5204 5580 50  0000 L CNN
F 1 "1N4937" V 5295 5580 50  0000 L CNN
F 2 "Diode_THT:D_DO-41_SOD81_P10.16mm_Horizontal" H 5250 5325 50  0001 C CNN
F 3 "" H 5250 5500 50  0001 C CNN
	1    5250 5500
	0    1    1    0   
$EndComp
$Comp
L Diode:1N4007 D4
U 1 1 6178D414
P 5750 4700
F 0 "D4" V 5704 4780 50  0000 L CNN
F 1 "1N4937" V 5795 4780 50  0000 L CNN
F 2 "Diode_THT:D_DO-41_SOD81_P10.16mm_Horizontal" H 5750 4525 50  0001 C CNN
F 3 "" H 5750 4700 50  0001 C CNN
	1    5750 4700
	0    1    1    0   
$EndComp
$Comp
L Diode:1N4007 D5
U 1 1 6178DD80
P 5750 5500
F 0 "D5" V 5704 5580 50  0000 L CNN
F 1 "1N4937" V 5795 5580 50  0000 L CNN
F 2 "Diode_THT:D_DO-41_SOD81_P10.16mm_Horizontal" H 5750 5325 50  0001 C CNN
F 3 "" H 5750 5500 50  0001 C CNN
	1    5750 5500
	0    1    1    0   
$EndComp
$Comp
L Diode:1N4007 D6
U 1 1 6178E779
P 6250 4700
F 0 "D6" V 6204 4780 50  0000 L CNN
F 1 "1N4937" V 6295 4780 50  0000 L CNN
F 2 "Diode_THT:D_DO-41_SOD81_P10.16mm_Horizontal" H 6250 4525 50  0001 C CNN
F 3 "" H 6250 4700 50  0001 C CNN
	1    6250 4700
	0    1    1    0   
$EndComp
$Comp
L Diode:1N4007 D7
U 1 1 6178F1B9
P 6250 5500
F 0 "D7" V 6204 5580 50  0000 L CNN
F 1 "1N4937" V 6295 5580 50  0000 L CNN
F 2 "Diode_THT:D_DO-41_SOD81_P10.16mm_Horizontal" H 6250 5325 50  0001 C CNN
F 3 "" H 6250 5500 50  0001 C CNN
	1    6250 5500
	0    1    1    0   
$EndComp
$Comp
L Diode:1N4007 D8
U 1 1 6178FD7E
P 6750 4700
F 0 "D8" V 6704 4780 50  0000 L CNN
F 1 "1N4937" V 6795 4780 50  0000 L CNN
F 2 "Diode_THT:D_DO-41_SOD81_P10.16mm_Horizontal" H 6750 4525 50  0001 C CNN
F 3 "" H 6750 4700 50  0001 C CNN
	1    6750 4700
	0    1    1    0   
$EndComp
$Comp
L Diode:1N4007 D9
U 1 1 6179081B
P 6750 5500
F 0 "D9" V 6704 5580 50  0000 L CNN
F 1 "1N4937" V 6795 5580 50  0000 L CNN
F 2 "Diode_THT:D_DO-41_SOD81_P10.16mm_Horizontal" H 6750 5325 50  0001 C CNN
F 3 "" H 6750 5500 50  0001 C CNN
	1    6750 5500
	0    1    1    0   
$EndComp
Wire Wire Line
	4300 5800 4300 6100
Connection ~ 4300 6100
Wire Wire Line
	4200 5800 4200 6100
Wire Wire Line
	4200 6100 4050 6100
Connection ~ 4050 6100
Text Label 10000 4000 0    50   ~ 0
SetaDir
Text Label 9600 4000 2    50   ~ 0
SetaEsq
$Comp
L Device:R R13
U 1 1 61543B09
P 4750 2300
F 0 "R13" V 4700 2500 50  0000 C CNN
F 1 "100R" V 4750 2300 50  0000 C CNN
F 2 "Resistor_SMD:R_0805_2012Metric" V 4680 2300 50  0001 C CNN
F 3 "~" H 4750 2300 50  0001 C CNN
	1    4750 2300
	0    1    1    0   
$EndComp
$Comp
L Device:R R14
U 1 1 6154CC95
P 4750 2400
F 0 "R14" V 4700 2600 50  0000 C CNN
F 1 "100R" V 4750 2400 50  0000 C CNN
F 2 "Resistor_SMD:R_0805_2012Metric" V 4680 2400 50  0001 C CNN
F 3 "~" H 4750 2400 50  0001 C CNN
	1    4750 2400
	0    1    1    0   
$EndComp
Wire Wire Line
	3100 2500 4000 2500
Text Label 5500 2300 2    50   ~ 0
SetaEsq
Text Label 5500 2400 2    50   ~ 0
SetaDir
Text Label 5500 2600 2    50   ~ 0
LuzFreio
Text Label 5500 2500 2    50   ~ 0
Farol
$Comp
L power:+5V #PWR019
U 1 1 619D01C9
P 4000 2800
F 0 "#PWR019" H 4000 2650 50  0001 C CNN
F 1 "+5V" V 4015 2928 50  0000 L CNN
F 2 "" H 4000 2800 50  0001 C CNN
F 3 "" H 4000 2800 50  0001 C CNN
	1    4000 2800
	0    -1   -1   0   
$EndComp
$Comp
L power:+5V #PWR020
U 1 1 619DABD8
P 4500 2800
F 0 "#PWR020" H 4500 2650 50  0001 C CNN
F 1 "+5V" V 4515 2928 50  0000 L CNN
F 2 "" H 4500 2800 50  0001 C CNN
F 3 "" H 4500 2800 50  0001 C CNN
	1    4500 2800
	0    1    1    0   
$EndComp
$Comp
L Device:R R12
U 1 1 61394FCE
P 4750 2700
F 0 "R12" V 4700 2900 50  0000 C CNN
F 1 "470R" V 4750 2700 50  0000 C CNN
F 2 "Resistor_SMD:R_0805_2012Metric" V 4680 2700 50  0001 C CNN
F 3 "~" H 4750 2700 50  0001 C CNN
	1    4750 2700
	0    1    1    0   
$EndComp
$Comp
L Transistor_BJT:BC547 Q2
U 1 1 614D2B11
P 9900 3000
F 0 "Q2" H 10091 3046 50  0000 L CNN
F 1 "BC547B" H 10091 2955 50  0000 L CNN
F 2 "Package_TO_SOT_THT:TO-92_Inline_Wide" H 10100 2925 50  0001 L CIN
F 3 "~" H 9900 3000 50  0001 L CNN
	1    9900 3000
	1    0    0    -1  
$EndComp
$Comp
L Device:R R11
U 1 1 614D5729
P 10000 2650
F 0 "R11" H 10070 2696 50  0000 L CNN
F 1 "100R" H 10070 2605 50  0000 L CNN
F 2 "Resistor_SMD:R_0805_2012Metric" V 9930 2650 50  0001 C CNN
F 3 "~" H 10000 2650 50  0001 C CNN
	1    10000 2650
	1    0    0    -1  
$EndComp
Wire Wire Line
	9050 3000 9400 3000
$Comp
L Device:R R9
U 1 1 6150488C
P 9550 3000
F 0 "R9" V 9343 3000 50  0000 C CNN
F 1 "100K" V 9434 3000 50  0000 C CNN
F 2 "Resistor_THT:R_Axial_DIN0207_L6.3mm_D2.5mm_P10.16mm_Horizontal" V 9480 3000 50  0001 C CNN
F 3 "~" H 9550 3000 50  0001 C CNN
	1    9550 3000
	0    1    1    0   
$EndComp
$Comp
L Device:R R10
U 1 1 61507FC5
P 10500 2650
F 0 "R10" H 10570 2696 50  0000 L CNN
F 1 "1K" H 10570 2605 50  0000 L CNN
F 2 "Resistor_THT:R_Axial_DIN0207_L6.3mm_D2.5mm_P10.16mm_Horizontal" V 10430 2650 50  0001 C CNN
F 3 "~" H 10500 2650 50  0001 C CNN
	1    10500 2650
	1    0    0    -1  
$EndComp
Text Notes 9900 2650 2    50   ~ 0
Opcional
Wire Notes Line
	9600 2650 10000 2650
Text Notes 8850 3350 0    50   ~ 0
R9 = 4,4 ÷ 0,01 × hFE.
Wire Notes Line
	9850 3250 9850 3400
Wire Notes Line
	9850 3400 8800 3400
Wire Notes Line
	8800 3400 8800 3250
Wire Notes Line
	8800 3250 9850 3250
Wire Wire Line
	3100 2600 4000 2600
Text Label 6350 3750 0    50   ~ 0
Ré
$Comp
L power:GND #PWR022
U 1 1 617BB6DF
P 7000 4050
F 0 "#PWR022" H 7000 3800 50  0001 C CNN
F 1 "GND" H 7005 3877 50  0000 C CNN
F 2 "" H 7000 4050 50  0001 C CNN
F 3 "" H 7000 4050 50  0001 C CNN
	1    7000 4050
	1    0    0    -1  
$EndComp
$Comp
L Device:LED LED5
U 1 1 6195E722
P 7000 3900
F 0 "LED5" V 7039 3782 50  0000 R CNN
F 1 "Branco" V 6948 3782 50  0000 R CNN
F 2 "LED_THT:LED_D5.0mm_Clear" H 7000 3900 50  0001 C CNN
F 3 "~" H 7000 3900 50  0001 C CNN
	1    7000 3900
	0    -1   -1   0   
$EndComp
$Comp
L Connector:Conn_01x07_Female J4
U 1 1 613B2D2C
P 4200 2600
F 0 "J4" H 4100 3100 50  0000 C CNN
F 1 "Luzes" H 4200 3000 50  0000 R CNN
F 2 "Connector_PinSocket_2.54mm:PinSocket_1x07_P2.54mm_Vertical" H 4200 2600 50  0001 C CNN
F 3 "~" H 4200 2600 50  0001 C CNN
	1    4200 2600
	1    0    0    -1  
$EndComp
$Comp
L Connector:Conn_01x07_Male J5
U 1 1 613E3020
P 4300 2600
F 0 "J5" H 4400 3100 50  0000 C CNN
F 1 "Luzes" H 4300 3000 50  0000 L CNN
F 2 "Connector_PinHeader_2.54mm:PinHeader_1x07_P2.54mm_Vertical" H 4300 2600 50  0001 C CNN
F 3 "~" H 4300 2600 50  0001 C CNN
	1    4300 2600
	1    0    0    -1  
$EndComp
Text Label 5500 2700 2    50   ~ 0
Ré
Wire Wire Line
	5500 2700 4900 2700
Wire Wire Line
	4500 2600 5500 2600
Wire Wire Line
	5500 2500 4500 2500
Wire Wire Line
	4500 2400 4600 2400
Wire Wire Line
	5500 2300 4900 2300
Wire Wire Line
	4850 3700 5000 3700
$Comp
L power:GND #PWR0105
U 1 1 6211D34D
P 5000 3800
F 0 "#PWR0105" H 5000 3550 50  0001 C CNN
F 1 "GND" V 5005 3672 50  0000 R CNN
F 2 "" H 5000 3800 50  0001 C CNN
F 3 "" H 5000 3800 50  0001 C CNN
	1    5000 3800
	0    1    1    0   
$EndComp
$Comp
L Device:Crystal Y1
U 1 1 6217188E
P 3450 3100
F 0 "Y1" H 3450 3250 50  0000 C CNN
F 1 "7,3728 MHz" H 3650 3100 50  0000 L CNN
F 2 "Crystal:Crystal_HC49-U_Vertical" H 3450 3100 50  0001 C CNN
F 3 "~" H 3450 3100 50  0001 C CNN
	1    3450 3100
	1    0    0    -1  
$EndComp
Wire Wire Line
	3100 2900 3300 2900
Wire Wire Line
	3300 2900 3300 3100
Wire Wire Line
	3100 2800 3600 2800
Wire Wire Line
	3600 2800 3600 3100
$Comp
L Device:C_Small C4
U 1 1 6218BAA5
P 3600 3300
F 0 "C4" H 3700 3350 50  0000 L CNN
F 1 "12pF" H 3700 3250 50  0000 L CNN
F 2 "Capacitor_THT:C_Disc_D3.4mm_W2.1mm_P2.50mm" H 3600 3300 50  0001 C CNN
F 3 "~" H 3600 3300 50  0001 C CNN
	1    3600 3300
	1    0    0    -1  
$EndComp
$Comp
L Device:C_Small C5
U 1 1 6218C22A
P 3300 3300
F 0 "C5" H 3400 3350 50  0000 L CNN
F 1 "12pF" H 3400 3250 50  0000 L CNN
F 2 "Capacitor_THT:C_Disc_D3.4mm_W2.1mm_P2.50mm" H 3300 3300 50  0001 C CNN
F 3 "~" H 3300 3300 50  0001 C CNN
	1    3300 3300
	1    0    0    -1  
$EndComp
$Comp
L power:GND #PWR0106
U 1 1 6218E594
P 3450 3400
F 0 "#PWR0106" H 3450 3150 50  0001 C CNN
F 1 "GND" H 3455 3227 50  0000 C CNN
F 2 "" H 3450 3400 50  0001 C CNN
F 3 "" H 3450 3400 50  0001 C CNN
	1    3450 3400
	1    0    0    -1  
$EndComp
Wire Wire Line
	3300 3400 3450 3400
Connection ~ 3450 3400
Wire Wire Line
	3450 3400 3600 3400
Wire Wire Line
	3300 3200 3300 3100
Connection ~ 3300 3100
Wire Wire Line
	3600 3200 3600 3100
Connection ~ 3600 3100
Wire Notes Line
	9550 3000 9550 3250
$Comp
L power:GND #PWR0110
U 1 1 6247A334
P 10000 3200
F 0 "#PWR0110" H 10000 2950 50  0001 C CNN
F 1 "GND" H 10005 3027 50  0000 C CNN
F 2 "" H 10000 3200 50  0001 C CNN
F 3 "" H 10000 3200 50  0001 C CNN
	1    10000 3200
	1    0    0    -1  
$EndComp
$Comp
L power:GND #PWR0111
U 1 1 62497ACB
P 4300 6500
F 0 "#PWR0111" H 4300 6250 50  0001 C CNN
F 1 "GND" H 4305 6327 50  0000 C CNN
F 2 "" H 4300 6500 50  0001 C CNN
F 3 "" H 4300 6500 50  0001 C CNN
	1    4300 6500
	1    0    0    -1  
$EndComp
$Comp
L power:GND #PWR0112
U 1 1 624A85DF
P 6000 5650
F 0 "#PWR0112" H 6000 5400 50  0001 C CNN
F 1 "GND" H 6005 5477 50  0000 C CNN
F 2 "" H 6000 5650 50  0001 C CNN
F 3 "" H 6000 5650 50  0001 C CNN
	1    6000 5650
	1    0    0    -1  
$EndComp
Wire Wire Line
	5250 5650 5750 5650
Connection ~ 5750 5650
Connection ~ 6250 5650
Wire Wire Line
	6250 5650 6750 5650
Wire Wire Line
	5750 5650 6000 5650
Connection ~ 6000 5650
Wire Wire Line
	6000 5650 6250 5650
Wire Wire Line
	5250 4550 5750 4550
Connection ~ 5750 4550
Connection ~ 6250 4550
Wire Wire Line
	6250 4550 6750 4550
Wire Wire Line
	3800 6400 4050 6400
Wire Wire Line
	4300 6400 4550 6400
Wire Wire Line
	4050 6400 4050 6500
Wire Wire Line
	4300 6500 4300 6400
Connection ~ 4050 6400
Connection ~ 4300 6400
Wire Wire Line
	6250 5200 7500 5200
Wire Wire Line
	7250 5700 7500 5700
Wire Wire Line
	5750 5000 7500 5000
Wire Wire Line
	7250 4500 7500 4500
Text Label 4500 3900 0    50   ~ 0
BT_TXD
Text Label 3500 3900 2    50   ~ 0
MCU_RXD
NoConn ~ 5000 4000
NoConn ~ 3100 4000
$Comp
L Connector:Conn_01x06_Female J3
U 1 1 618D5350
P 5200 3800
F 0 "J3" H 5228 3776 50  0000 L CNN
F 1 "BT HC-05/06" H 5228 3685 50  0000 L CNN
F 2 "Connector_PinSocket_2.54mm:PinSocket_1x06_P2.54mm_Horizontal" H 5200 3800 50  0001 C CNN
F 3 "~" H 5200 3800 50  0001 C CNN
	1    5200 3800
	1    0    0    -1  
$EndComp
NoConn ~ 5000 4100
NoConn ~ 5000 3600
$Comp
L Diode:1N5817 D1
U 1 1 613E3E78
P 2200 6500
F 0 "D1" H 2200 6600 50  0000 C CNN
F 1 "1N5817" H 2200 6400 50  0000 C CNN
F 2 "Diode_THT:D_DO-41_SOD81_P10.16mm_Horizontal" H 2200 6325 50  0001 C CNN
F 3 "http://www.vishay.com/docs/88525/1n5817.pdf" H 2200 6500 50  0001 C CNN
	1    2200 6500
	1    0    0    -1  
$EndComp
Wire Wire Line
	2350 6500 2500 6500
$Comp
L Connector:Screw_Terminal_01x02 J1
U 1 1 6178A6F2
P 1800 6200
F 0 "J1" H 1900 6200 50  0000 L CNN
F 1 "4×AA" H 1900 6100 50  0000 L CNN
F 2 "Connector_Molex:Molex_KK-254_AE-6410-02A_1x02_P2.54mm_Vertical" H 1800 6200 50  0001 C CNN
F 3 "~" H 1800 6200 50  0001 C CNN
	1    1800 6200
	-1   0    0    -1  
$EndComp
Wire Wire Line
	2000 6000 2000 6200
$Comp
L Device:CP C1
U 1 1 61804B23
P 2500 6250
F 0 "C1" H 2600 6350 50  0000 L CNN
F 1 "100µF" H 2600 6250 50  0000 L CNN
F 2 "Capacitor_THT:CP_Radial_D6.3mm_P2.50mm" H 2538 6100 50  0001 C CNN
F 3 "~" H 2500 6250 50  0001 C CNN
F 4 "16V" H 2600 6150 50  0000 L CNN "Voltage"
	1    2500 6250
	1    0    0    -1  
$EndComp
$Comp
L power:GND #PWR03
U 1 1 6179FDAA
P 2500 6500
F 0 "#PWR03" H 2500 6250 50  0001 C CNN
F 1 "GND" H 2505 6327 50  0000 C CNN
F 2 "" H 2500 6500 50  0001 C CNN
F 3 "" H 2500 6500 50  0001 C CNN
	1    2500 6500
	1    0    0    -1  
$EndComp
$Comp
L power:+5V #PWR0103
U 1 1 618A0BB4
P 2500 6000
F 0 "#PWR0103" H 2500 5850 50  0001 C CNN
F 1 "+5V" H 2515 6173 50  0000 C CNN
F 2 "" H 2500 6000 50  0001 C CNN
F 3 "" H 2500 6000 50  0001 C CNN
	1    2500 6000
	1    0    0    -1  
$EndComp
$Comp
L power:+5V #PWR0108
U 1 1 618A31FA
P 2500 1850
F 0 "#PWR0108" H 2500 1700 50  0001 C CNN
F 1 "+5V" H 2515 2023 50  0000 C CNN
F 2 "" H 2500 1850 50  0001 C CNN
F 3 "" H 2500 1850 50  0001 C CNN
	1    2500 1850
	1    0    0    -1  
$EndComp
$Comp
L power:+5V #PWR0113
U 1 1 618A3B75
P 4500 4350
F 0 "#PWR0113" H 4500 4200 50  0001 C CNN
F 1 "+5V" H 4515 4523 50  0000 C CNN
F 2 "" H 4500 4350 50  0001 C CNN
F 3 "" H 4500 4350 50  0001 C CNN
	1    4500 4350
	1    0    0    -1  
$EndComp
$Comp
L power:+5V #PWR0117
U 1 1 618CBE80
P 4850 3700
F 0 "#PWR0117" H 4850 3550 50  0001 C CNN
F 1 "+5V" H 4865 3873 50  0000 C CNN
F 2 "" H 4850 3700 50  0001 C CNN
F 3 "" H 4850 3700 50  0001 C CNN
	1    4850 3700
	1    0    0    -1  
$EndComp
$Comp
L power:+5V #PWR0118
U 1 1 618D0E8F
P 10000 1700
F 0 "#PWR0118" H 10000 1550 50  0001 C CNN
F 1 "+5V" H 10015 1873 50  0000 C CNN
F 2 "" H 10000 1700 50  0001 C CNN
F 3 "" H 10000 1700 50  0001 C CNN
	1    10000 1700
	1    0    0    -1  
$EndComp
$Comp
L power:GND #PWR0121
U 1 1 6195C3CD
P 4050 6500
F 0 "#PWR0121" H 4050 6250 50  0001 C CNN
F 1 "GND" H 4055 6327 50  0000 C CNN
F 2 "" H 4050 6500 50  0001 C CNN
F 3 "" H 4050 6500 50  0001 C CNN
	1    4050 6500
	1    0    0    -1  
$EndComp
Wire Wire Line
	3100 3900 5000 3900
Wire Wire Line
	2000 6000 2500 6000
$Comp
L power:GND #PWR0116
U 1 1 616F1305
P 9800 4500
F 0 "#PWR0116" H 9800 4250 50  0001 C CNN
F 1 "GND" H 9805 4327 50  0000 C CNN
F 2 "" H 9800 4500 50  0001 C CNN
F 3 "" H 9800 4500 50  0001 C CNN
	1    9800 4500
	1    0    0    -1  
$EndComp
$Comp
L Connector_Generic:Conn_01x02 J7
U 1 1 6181A546
P 10200 1950
F 0 "J7" H 10280 1942 50  0000 L CNN
F 1 "LFreio" H 10280 1851 50  0000 L CNN
F 2 "Connector_Molex:Molex_KK-254_AE-6410-02A_1x02_P2.54mm_Vertical" H 10200 1950 50  0001 C CNN
F 3 "~" H 10200 1950 50  0001 C CNN
	1    10200 1950
	1    0    0    -1  
$EndComp
$Comp
L Device:LED LED4
U 1 1 6181B7E8
P 9500 2150
F 0 "LED4" V 9539 2032 50  0000 R CNN
F 1 "Vermelho" V 9448 2032 50  0000 R CNN
F 2 "LED_THT:LED_D5.0mm" H 9500 2150 50  0001 C CNN
F 3 "~" H 9500 2150 50  0001 C CNN
	1    9500 2150
	0    -1   -1   0   
$EndComp
$Comp
L Device:LED LED3
U 1 1 6181C850
P 9500 1850
F 0 "LED3" V 9539 1732 50  0000 R CNN
F 1 "Vermelho" V 9448 1732 50  0000 R CNN
F 2 "LED_THT:LED_D5.0mm" H 9500 1850 50  0001 C CNN
F 3 "~" H 9500 1850 50  0001 C CNN
	1    9500 1850
	0    -1   -1   0   
$EndComp
Wire Wire Line
	10000 2050 10000 2300
Wire Wire Line
	9500 2300 10000 2300
Connection ~ 10000 2300
Wire Wire Line
	10000 2300 10000 2500
Wire Wire Line
	9500 1700 10000 1700
Wire Wire Line
	10000 1700 10000 1950
$Comp
L Device:LED LED9
U 1 1 6185513D
P 10150 4500
F 0 "LED9" H 10143 4717 50  0000 C CNN
F 1 "Amarelo" H 10143 4626 50  0000 C CNN
F 2 "LED_THT:LED_D5.0mm" H 10150 4500 50  0001 C CNN
F 3 "~" H 10150 4500 50  0001 C CNN
	1    10150 4500
	1    0    0    -1  
$EndComp
$Comp
L Device:LED LED10
U 1 1 61856272
P 10450 4500
F 0 "LED10" H 10443 4717 50  0000 C CNN
F 1 "Amarelo" H 10443 4626 50  0000 C CNN
F 2 "LED_THT:LED_D5.0mm" H 10450 4500 50  0001 C CNN
F 3 "~" H 10450 4500 50  0001 C CNN
	1    10450 4500
	1    0    0    -1  
$EndComp
$Comp
L Device:LED LED8
U 1 1 6185671F
P 9450 4500
F 0 "LED8" H 9443 4245 50  0000 C CNN
F 1 "Amarelo" H 9443 4336 50  0000 C CNN
F 2 "LED_THT:LED_D5.0mm" H 9450 4500 50  0001 C CNN
F 3 "~" H 9450 4500 50  0001 C CNN
	1    9450 4500
	-1   0    0    1   
$EndComp
$Comp
L Device:LED LED7
U 1 1 61856EE4
P 9150 4500
F 0 "LED7" H 9143 4245 50  0000 C CNN
F 1 "Amarelo" H 9143 4336 50  0000 C CNN
F 2 "LED_THT:LED_D5.0mm" H 9150 4500 50  0001 C CNN
F 3 "~" H 9150 4500 50  0001 C CNN
	1    9150 4500
	-1   0    0    1   
$EndComp
Wire Wire Line
	9800 4000 9800 4500
Wire Wire Line
	9000 4000 9000 4500
Wire Wire Line
	9000 4000 9700 4000
Wire Wire Line
	9600 4500 9800 4500
Connection ~ 9800 4500
Wire Wire Line
	9800 4500 10000 4500
$Comp
L Device:LED LED6
U 1 1 61888CC6
P 7500 3900
F 0 "LED6" V 7539 3782 50  0000 R CNN
F 1 "Branco" V 7448 3782 50  0000 R CNN
F 2 "LED_THT:LED_D5.0mm_Clear" H 7500 3900 50  0001 C CNN
F 3 "~" H 7500 3900 50  0001 C CNN
	1    7500 3900
	0    -1   -1   0   
$EndComp
$Comp
L Connector_Generic:Conn_01x02 J8
U 1 1 6188FA89
P 6700 3850
F 0 "J8" H 6780 3842 50  0000 L CNN
F 1 "LRé" H 6780 3751 50  0000 L CNN
F 2 "Connector_Molex:Molex_KK-254_AE-6410-02A_1x02_P2.54mm_Vertical" H 6700 3850 50  0001 C CNN
F 3 "~" H 6700 3850 50  0001 C CNN
	1    6700 3850
	1    0    0    -1  
$EndComp
$Comp
L Connector_Generic:Conn_01x03 J9
U 1 1 618A49F0
P 9800 3800
F 0 "J9" V 10000 3800 50  0000 C CNN
F 1 "LSetas" V 9900 3800 50  0000 C CNN
F 2 "Connector_Molex:Molex_KK-254_AE-6410-03A_1x03_P2.54mm_Vertical" H 9800 3800 50  0001 C CNN
F 3 "~" H 9800 3800 50  0001 C CNN
	1    9800 3800
	0    -1   -1   0   
$EndComp
Wire Wire Line
	6350 3750 6500 3750
$Comp
L power:GND #PWR01
U 1 1 618B4B7B
P 6500 3950
F 0 "#PWR01" H 6500 3700 50  0001 C CNN
F 1 "GND" H 6505 3777 50  0000 C CNN
F 2 "" H 6500 3950 50  0001 C CNN
F 3 "" H 6500 3950 50  0001 C CNN
	1    6500 3950
	1    0    0    -1  
$EndComp
$Comp
L power:GND #PWR02
U 1 1 618B5310
P 7500 4050
F 0 "#PWR02" H 7500 3800 50  0001 C CNN
F 1 "GND" H 7505 3877 50  0000 C CNN
F 2 "" H 7500 4050 50  0001 C CNN
F 3 "" H 7500 4050 50  0001 C CNN
	1    7500 4050
	1    0    0    -1  
$EndComp
Wire Wire Line
	7500 3750 7000 3750
Connection ~ 6500 3750
Wire Wire Line
	6500 3750 6500 3850
Connection ~ 7000 3750
Wire Wire Line
	7000 3750 6500 3750
Text Label 6650 3000 0    50   ~ 0
Farol
Wire Wire Line
	6650 3000 6900 3000
$Comp
L Device:R R6
U 1 1 616A649E
P 7050 3000
F 0 "R6" V 6843 3000 50  0000 C CNN
F 1 "47K" V 6934 3000 50  0000 C CNN
F 2 "Resistor_THT:R_Axial_DIN0207_L6.3mm_D2.5mm_P10.16mm_Horizontal" V 6980 3000 50  0001 C CNN
F 3 "~" H 7050 3000 50  0001 C CNN
	1    7050 3000
	0    1    1    0   
$EndComp
$Comp
L Device:R R7
U 1 1 6155843C
P 8000 2650
F 0 "R7" H 8070 2696 50  0000 L CNN
F 1 "10K" H 8070 2605 50  0000 L CNN
F 2 "Resistor_THT:R_Axial_DIN0207_L6.3mm_D2.5mm_P10.16mm_Horizontal" V 7930 2650 50  0001 C CNN
F 3 "~" H 8000 2650 50  0001 C CNN
	1    8000 2650
	1    0    0    -1  
$EndComp
Wire Notes Line
	6050 3250 6050 3400
Wire Notes Line
	7250 3400 7250 3250
Wire Notes Line
	6050 3400 7250 3400
Wire Notes Line
	7050 3000 7050 3250
Wire Notes Line
	7250 3250 6050 3250
Text Notes 6100 3350 0    50   ~ 0
R6 = 4,4 ÷ 0,04 × hFEmax.
$Comp
L Device:R R8
U 1 1 615F0FA3
P 7500 2650
F 0 "R8" H 7570 2696 50  0000 L CNN
F 1 "100R" H 7570 2605 50  0000 L CNN
F 2 "Resistor_SMD:R_0805_2012Metric" V 7430 2650 50  0001 C CNN
F 3 "~" H 7500 2650 50  0001 C CNN
	1    7500 2650
	1    0    0    -1  
$EndComp
Text Notes 7450 2650 2    50   ~ 0
Opcional
Wire Notes Line
	7150 2650 7500 2650
$Comp
L power:+5V #PWR0119
U 1 1 618D141B
P 7500 2100
F 0 "#PWR0119" H 7500 1950 50  0001 C CNN
F 1 "+5V" H 7515 2273 50  0000 C CNN
F 2 "" H 7500 2100 50  0001 C CNN
F 3 "" H 7500 2100 50  0001 C CNN
	1    7500 2100
	1    0    0    -1  
$EndComp
$Comp
L power:GND #PWR013
U 1 1 615F1AA5
P 8000 2800
F 0 "#PWR013" H 8000 2550 50  0001 C CNN
F 1 "GND" H 8005 2627 50  0000 C CNN
F 2 "" H 8000 2800 50  0001 C CNN
F 3 "" H 8000 2800 50  0001 C CNN
	1    8000 2800
	1    0    0    -1  
$EndComp
$Comp
L power:GND #PWR0109
U 1 1 623E9668
P 7500 3200
F 0 "#PWR0109" H 7500 2950 50  0001 C CNN
F 1 "GND" H 7505 3027 50  0000 C CNN
F 2 "" H 7500 3200 50  0001 C CNN
F 3 "" H 7500 3200 50  0001 C CNN
	1    7500 3200
	1    0    0    -1  
$EndComp
Wire Wire Line
	7500 2200 7500 2100
Wire Wire Line
	7000 2100 7500 2100
Connection ~ 7000 2100
Wire Wire Line
	6500 2100 7000 2100
Wire Wire Line
	7000 2400 7500 2400
Connection ~ 7000 2400
Wire Wire Line
	7500 2400 7500 2500
Connection ~ 7500 2400
Wire Wire Line
	6500 2400 7000 2400
Wire Wire Line
	7500 2300 7500 2400
$Comp
L Connector_Generic:Conn_01x02 J6
U 1 1 617E77F1
P 7700 2200
F 0 "J6" H 7780 2192 50  0000 L CNN
F 1 "LFarol" H 7780 2101 50  0000 L CNN
F 2 "Connector_Molex:Molex_KK-254_AE-6410-02A_1x02_P2.54mm_Vertical" H 7700 2200 50  0001 C CNN
F 3 "~" H 7700 2200 50  0001 C CNN
	1    7700 2200
	1    0    0    -1  
$EndComp
$Comp
L Device:LED LED1
U 1 1 617D7BB7
P 6500 2250
F 0 "LED1" V 6539 2132 50  0000 R CNN
F 1 "Farol" V 6448 2132 50  0000 R CNN
F 2 "LED_THT:LED_D5.0mm_Clear" H 6500 2250 50  0001 C CNN
F 3 "~" H 6500 2250 50  0001 C CNN
	1    6500 2250
	0    -1   -1   0   
$EndComp
$Comp
L Device:LED LED2
U 1 1 615E59DF
P 7000 2250
F 0 "LED2" V 7039 2132 50  0000 R CNN
F 1 "Farol" V 6948 2132 50  0000 R CNN
F 2 "LED_THT:LED_D5.0mm_Clear" H 7000 2250 50  0001 C CNN
F 3 "~" H 7000 2250 50  0001 C CNN
	1    7000 2250
	0    -1   -1   0   
$EndComp
$Comp
L Transistor_BJT:BC547 Q1
U 1 1 61697FAF
P 7400 3000
F 0 "Q1" H 7591 3046 50  0000 L CNN
F 1 "BC547B" H 7591 2955 50  0000 L CNN
F 2 "Package_TO_SOT_THT:TO-92_Inline_Wide" H 7600 2925 50  0001 L CIN
F 3 "~" H 7400 3000 50  0001 L CNN
	1    7400 3000
	1    0    0    -1  
$EndComp
Wire Wire Line
	10600 4000 10600 4500
Wire Wire Line
	9900 4000 10600 4000
Connection ~ 7500 2500
Wire Wire Line
	7500 2500 8000 2500
Connection ~ 10000 2500
Wire Wire Line
	10000 2500 10500 2500
Connection ~ 10000 1700
Connection ~ 7500 2100
Wire Wire Line
	4600 2300 4500 2300
Wire Wire Line
	4900 2400 5500 2400
Wire Wire Line
	4600 2700 4500 2700
Wire Wire Line
	3100 2700 4000 2700
Wire Wire Line
	3100 2400 4000 2400
Wire Wire Line
	3100 2300 4000 2300
Wire Wire Line
	5750 4550 6000 4550
Wire Wire Line
	4500 4350 4500 4400
Wire Wire Line
	4500 4350 4600 4350
Connection ~ 4500 4350
Connection ~ 4600 4350
Wire Wire Line
	4600 4350 4600 4400
$Comp
L power:+5V #PWR0101
U 1 1 61EAB7E6
P 6000 4550
F 0 "#PWR0101" H 6000 4400 50  0001 C CNN
F 1 "+5V" H 6015 4723 50  0000 C CNN
F 2 "" H 6000 4550 50  0001 C CNN
F 3 "" H 6000 4550 50  0001 C CNN
	1    6000 4550
	1    0    0    -1  
$EndComp
Connection ~ 6000 4550
Wire Wire Line
	6000 4550 6250 4550
Wire Wire Line
	2000 6300 2000 6500
Wire Wire Line
	2000 6500 2050 6500
Wire Wire Line
	2500 6400 2500 6500
Connection ~ 2500 6500
Wire Wire Line
	2500 6100 2500 6000
Connection ~ 2500 6000
$Comp
L power:PWR_FLAG #FLG?
U 1 1 6214A2AF
P 2500 6000
F 0 "#FLG?" H 2500 6075 50  0001 C CNN
F 1 "PWR_FLAG" V 2500 6128 50  0000 L CNN
F 2 "" H 2500 6000 50  0001 C CNN
F 3 "~" H 2500 6000 50  0001 C CNN
	1    2500 6000
	0    1    1    0   
$EndComp
$Comp
L power:PWR_FLAG #FLG?
U 1 1 6214A62F
P 2500 6500
F 0 "#FLG?" H 2500 6575 50  0001 C CNN
F 1 "PWR_FLAG" V 2500 6628 50  0000 L CNN
F 2 "" H 2500 6500 50  0001 C CNN
F 3 "~" H 2500 6500 50  0001 C CNN
	1    2500 6500
	0    1    1    0   
$EndComp
Connection ~ 2500 1850
$Comp
L power:GND #PWR?
U 1 1 6226AC52
P 4000 2900
F 0 "#PWR?" H 4000 2650 50  0001 C CNN
F 1 "GND" V 4005 2772 50  0000 R CNN
F 2 "" H 4000 2900 50  0001 C CNN
F 3 "" H 4000 2900 50  0001 C CNN
	1    4000 2900
	0    1    1    0   
$EndComp
$Comp
L power:GND #PWR?
U 1 1 6226B0D0
P 4500 2900
F 0 "#PWR?" H 4500 2650 50  0001 C CNN
F 1 "GND" H 4505 2727 50  0000 C CNN
F 2 "" H 4500 2900 50  0001 C CNN
F 3 "" H 4500 2900 50  0001 C CNN
	1    4500 2900
	1    0    0    -1  
$EndComp
Wire Wire Line
	3900 4600 3900 4100
Wire Wire Line
	3100 4100 3900 4100
Wire Wire Line
	3900 4700 3800 4700
Wire Wire Line
	3800 4700 3800 4200
Wire Wire Line
	3100 4200 3800 4200
Wire Wire Line
	3700 4300 3700 5000
Wire Wire Line
	3100 4300 3700 4300
Wire Wire Line
	3600 4400 3600 4800
Wire Wire Line
	3600 4800 3900 4800
Wire Wire Line
	3100 4400 3600 4400
Wire Wire Line
	3700 5000 3900 5000
Wire Wire Line
	3500 4500 3500 5200
Wire Wire Line
	3500 5200 3900 5200
Wire Wire Line
	3100 4500 3500 4500
Wire Wire Line
	3400 4600 3400 5100
Wire Wire Line
	3400 5100 3900 5100
Wire Wire Line
	3100 4600 3400 4600
$Comp
L power:GND #PWR?
U 1 1 6232C1D4
P 4500 5800
F 0 "#PWR?" H 4500 5550 50  0001 C CNN
F 1 "GND" H 4505 5627 50  0000 C CNN
F 2 "" H 4500 5800 50  0001 C CNN
F 3 "" H 4500 5800 50  0001 C CNN
	1    4500 5800
	1    0    0    -1  
$EndComp
$EndSCHEMATC
